[
{
    "type": "extension",
    "frameworkVersion":"1.0.6",
    "guid" : "{3A7DFFA6-D3F0-42D1-87DF-C026FEE05D0B}",
    "version":"0.0.9",
    "author": {
        "name": "j0nNyKa",
        "email": "admin@jimmorrison723.hu",
        "site": "http://sgcset.tk"
    },
    "title": {
        "en": "SG Forum cset tuning",
        "hu": "SG Forum chat tuning"
    },
    "desctiption" : {
        "hu" : "Az SG Forum cset Maxthon bővítménye by j0nNyKa."
    },
    "permissions": [
        "httpRequest": ["http://*/*", "https://*/*", "*." ]
    ],
    "actions": [{
        "entryPoints": ["doc_start"],
        "type": "script",
        "icon": "icon",
        "include" : ["*sg.*"],
        "js" : [ "require.js", "sgchat_init.js", "sgchat_loader", "sgchat_killsocket.js" ],
    }]
}
]